<?xml version="1.0" encoding="iso-8859-1"?>
<!DOCTYPE svg PUBLIC "-//W3C//DTD SVG 1.1//EN" "http://www.w3.org/Graphics/SVG/1.1/DTD/svg11.dtd">
<svg 
 version="1.1" xmlns="http://www.w3.org/2000/svg" xmlns:xlink="http://www.w3.org/1999/xlink" x="0px" y="0px" width="512px"
	 height="512px" viewBox="0 0 512 512" style="enable-background:new 0 0 512 512;" xml:space="preserve"
><g fill="#757575" id="7935ec95c421cee6d86eb22ecd143992"><g fill="#757575"></g><path style="display: inline; #13110C;" d="M64.375,458.271H0.5V53.729h63.875V458.271z M426.333,53.729h-63.875v404.541h63.875
		V53.729z M128.25,53.729h-21.292v404.541h21.292V53.729z M212.751,53.729h-41.252v404.541h41.252V53.729z M254.669,53.729h-19.961
		v404.541h19.961V53.729z M318.544,53.729h-19.961v404.541h19.961V53.729z M511.5,53.729h-42.583v404.541H511.5V53.729z"></path></g></svg>